ead_ajay
…
ead_ajay

Stat542

3/29/2021

Tibble the dataset

tibble(train)

## # A tibble: 164,115 x 5
##    Store  Dept Date       Weekly_Sales IsHoliday
##    <dbl> <dbl> <date>            <dbl> <lgl>    
##  1     1     1 2010-02-05       24924. FALSE    
##  2     1     1 2010-02-12       46039. TRUE     
##  3     1     1 2010-02-19       41596. FALSE    
##  4     1     1 2010-02-26       19404. FALSE    
##  5     1     1 2010-03-05       21828. FALSE    
##  6     1     1 2010-03-12       21043. FALSE    
##  7     1     1 2010-03-19       22137. FALSE    
##  8     1     1 2010-03-26       26229. FALSE    
##  9     1     1 2010-04-02       57258. FALSE    
## 10     1     1 2010-04-09       42961. FALSE    
## #  with 164,105 more rows
…
test_num_stores <- unique(test$Store) # 45 stores
test_num_dept <- unique(test$Dept) # 65 Departments

Filter selected date sets - Check # of records for 2010 alone

filter(select (train, 3,4,5), Date < ymd('2010-01-01')) # none before 2010

## # A tibble: 0 x 3
## #  with 3 variables: Date <date>, Weekly_Sales <dbl>, IsHoliday <lgl>

filter(select (train, 3,4,5), Date < ymd('2011-01-01') & Date >= ymd('2010-01-01')) # 140,679 rows for 2010 alone.

## # A tibble: 140,679 x 3
##    Date       Weekly_Sales IsHoliday
##    <date>            <dbl> <lgl>    
##  1 2010-02-05       24924. FALSE    
##  2 2010-02-12       46039. TRUE     
##  3 2010-02-19       41596. FALSE    
##  4 2010-02-26       19404. FALSE    
##  5 2010-03-05       21828. FALSE    
##  6 2010-03-12       21043. FALSE    
##  7 2010-03-19       22137. FALSE    
##  8 2010-03-26       26229. FALSE    
##  9 2010-04-02       57258. FALSE    
## 10 2010-04-09       42961. FALSE    
## #  with 140,669 more rows
…
Distribution of Sales by Store

filter(select (train,1:5), Date < ymd('2011-01-01') & Date >= ymd('2010-01-01'))

## # A tibble: 140,679 x 5
##    Store  Dept Date       Weekly_Sales IsHoliday
##    <dbl> <dbl> <date>            <dbl> <lgl>    
##  1     1     1 2010-02-05       24924. FALSE    
##  2     1     1 2010-02-12       46039. TRUE     
##  3     1     1 2010-02-19       41596. FALSE    
##  4     1     1 2010-02-26       19404. FALSE    
##  5     1     1 2010-03-05       21828. FALSE    
##  6     1     1 2010-03-12       21043. FALSE    
##  7     1     1 2010-03-19       22137. FALSE    
##  8     1     1 2010-03-26       26229. FALSE    
##  9     1     1 2010-04-02       57258. FALSE    
## 10     1     1 2010-04-09       42961. FALSE    
## #  with 140,669 more rows
…
Distribution of Sales by Dept

train %>% group_by(Store) %>% summarize(Total_Sales=sum(Weekly_Sales))

## # A tibble: 45 x 2
##    Store Total_Sales
##    <dbl>       <dbl>
##  1     1   85158771.
##  2     2  110238649.
##  3     3   21919500.
##  4     4  111810608.
##  5     5   17229902.
##  6     6   88113882.
##  7     7   30048548.
##  8     8   50415280.
##  9     9   29219855.
## 10    10  109449026.
## #  with 35 more rows

train %>% group_by(Dept) %>% summarize(Total_Sales=sum(Weekly_Sales))

## # A tibble: 81 x 2
##     Dept Total_Sales
##    <dbl>       <dbl>
##  1     1   49301700.
##  2     2  108689287.
##  3     3   28703857.
##  4     4   64587778.
##  5     5   59090412.
##  6     6   13527271.
##  7     7   63465721.
##  8     8   76051468.
##  9     9   47185816.
## 10    10   45221430.
## #  with 71 more rows
…
